%YAML 1.1
%TAG !u! tag:unity3d.com,2011:
--- !u!74 &7400000
AnimationClip:
  m_ObjectHideFlags: 0
  m_CorrespondingSourceObject: {fileID: 0}
  m_PrefabInstance: {fileID: 0}
  m_PrefabAsset: {fileID: 0}
  m_Name: PlayerHead
  serializedVersion: 6
  m_Legacy: 0
  m_Compressed: 0
  m_UseHighQualityCurve: 1
  m_RotationCurves: []
  m_CompressedRotationCurves: []
  m_EulerCurves: []
  m_PositionCurves: []
  m_ScaleCurves: []
  m_FloatCurves: []
  m_PPtrCurves:
  - curve:
    - time: 0
      value: {fileID: -883973793, guid: 164138c955bb91a4c9f0cb76250d8e59, type: 3}
    - time: 0.083333336
      value: {fileID: -1474281972, guid: 164138c955bb91a4c9f0cb76250d8e59, type: 3}
    - time: 0.16666667
      value: {fileID: 4736066, guid: 164138c955bb91a4c9f0cb76250d8e59, type: 3}
    - time: 0.25
      value: {fileID: 2039577564, guid: 164138c955bb91a4c9f0cb76250d8e59, type: 3}
    - time: 0.33333334
      value: {fileID: -744157307, guid: 164138c955bb91a4c9f0cb76250d8e59, type: 3}
    - time: 0.41666666
      value: {fileID: -1662388532, guid: 164138c955bb91a4c9f0cb76250d8e59, type: 3}
    - time: 0.5
      value: {fileID: -1407201811, guid: 164138c955bb91a4c9f0cb76250d8e59, type: 3}
    - time: 0.5833333
      value: {fileID: -1756882029, guid: 164138c955bb91a4c9f0cb76250d8e59, type: 3}
    - time: 0.6666667
      value: {fileID: 1930537508, guid: 164138c955bb91a4c9f0cb76250d8e59, type: 3}
    - time: 0.75
      value: {fileID: 378693143, guid: 164138c955bb91a4c9f0cb76250d8e59, type: 3}
    - time: 0.8333333
      value: {fileID: 537091475, guid: 164138c955bb91a4c9f0cb76250d8e59, type: 3}
    - time: 0.9166667
      value: {fileID: -1752334006, guid: 164138c955bb91a4c9f0cb76250d8e59, type: 3}
    - time: 1
      value: {fileID: 1535209173, guid: 164138c955bb91a4c9f0cb76250d8e59, type: 3}
    - time: 1.0833334
      value: {fileID: 397878556, guid: 164138c955bb91a4c9f0cb76250d8e59, type: 3}
    - time: 1.1666666
      value: {fileID: 391511455, guid: 164138c955bb91a4c9f0cb76250d8e59, type: 3}
    - time: 1.25
      value: {fileID: -606463573, guid: 164138c955bb91a4c9f0cb76250d8e59, type: 3}
    - time: 1.3333334
      value: {fileID: -163637760, guid: 164138c955bb91a4c9f0cb76250d8e59, type: 3}
    - time: 1.4166666
      value: {fileID: -1482591667, guid: 164138c955bb91a4c9f0cb76250d8e59, type: 3}
    - time: 1.5
      value: {fileID: -488039219, guid: 164138c955bb91a4c9f0cb76250d8e59, type: 3}
    - time: 1.5833334
      value: {fileID: 1858646163, guid: 164138c955bb91a4c9f0cb76250d8e59, type: 3}
    - time: 1.6666666
      value: {fileID: -330681856, guid: 164138c955bb91a4c9f0cb76250d8e59, type: 3}
    - time: 1.75
      value: {fileID: -429636764, guid: 164138c955bb91a4c9f0cb76250d8e59, type: 3}
    - time: 1.8333334
      value: {fileID: -1175028685, guid: 164138c955bb91a4c9f0cb76250d8e59, type: 3}
    - time: 1.9166666
      value: {fileID: 818200444, guid: 164138c955bb91a4c9f0cb76250d8e59, type: 3}
    - time: 2
      value: {fileID: -611530374, guid: 164138c955bb91a4c9f0cb76250d8e59, type: 3}
    - time: 2.0833333
      value: {fileID: -2018499130, guid: 164138c955bb91a4c9f0cb76250d8e59, type: 3}
    - time: 2.1666667
      value: {fileID: -1185241912, guid: 164138c955bb91a4c9f0cb76250d8e59, type: 3}
    - time: 2.25
      value: {fileID: -812226781, guid: 164138c955bb91a4c9f0cb76250d8e59, type: 3}
    - time: 2.3333333
      value: {fileID: 938327194, guid: 164138c955bb91a4c9f0cb76250d8e59, type: 3}
    - time: 2.4166667
      value: {fileID: 1515233382, guid: 164138c955bb91a4c9f0cb76250d8e59, type: 3}
    - time: 2.5
      value: {fileID: 1327180579, guid: 164138c955bb91a4c9f0cb76250d8e59, type: 3}
    - time: 2.5833333
      value: {fileID: -1910716627, guid: 164138c955bb91a4c9f0cb76250d8e59, type: 3}
    - time: 2.6666667
      value: {fileID: -1076997869, guid: 164138c955bb91a4c9f0cb76250d8e59, type: 3}
    - time: 2.75
      value: {fileID: -299269227, guid: 164138c955bb91a4c9f0cb76250d8e59, type: 3}
    - time: 2.8333333
      value: {fileID: -798395404, guid: 164138c955bb91a4c9f0cb76250d8e59, type: 3}
    - time: 2.9166667
      value: {fileID: -2118258598, guid: 164138c955bb91a4c9f0cb76250d8e59, type: 3}
    - time: 3
      value: {fileID: -1716675581, guid: 164138c955bb91a4c9f0cb76250d8e59, type: 3}
    - time: 3.0833333
      value: {fileID: 697581439, guid: 164138c955bb91a4c9f0cb76250d8e59, type: 3}
    - time: 3.1666667
      value: {fileID: 1329069757, guid: 164138c955bb91a4c9f0cb76250d8e59, type: 3}
    - time: 3.25
      value: {fileID: 1893155456, guid: 164138c955bb91a4c9f0cb76250d8e59, type: 3}
    - time: 3.3333333
      value: {fileID: -1437559635, guid: 164138c955bb91a4c9f0cb76250d8e59, type: 3}
    - time: 3.4166667
      value: {fileID: -1132173513, guid: 164138c955bb91a4c9f0cb76250d8e59, type: 3}
    - time: 3.5
      value: {fileID: 1284453014, guid: 164138c955bb91a4c9f0cb76250d8e59, type: 3}
    - time: 3.5833333
      value: {fileID: 1497253081, guid: 164138c955bb91a4c9f0cb76250d8e59, type: 3}
    - time: 3.6666667
      value: {fileID: -375751236, guid: 164138c955bb91a4c9f0cb76250d8e59, type: 3}
    - time: 3.75
      value: {fileID: -370517937, guid: 164138c955bb91a4c9f0cb76250d8e59, type: 3}
    - time: 3.8333333
      value: {fileID: 592305455, guid: 164138c955bb91a4c9f0cb76250d8e59, type: 3}
    - time: 3.9166667
      value: {fileID: 475585133, guid: 164138c955bb91a4c9f0cb76250d8e59, type: 3}
    - time: 4
      value: {fileID: -637130948, guid: 164138c955bb91a4c9f0cb76250d8e59, type: 3}
    - time: 4.0833335
      value: {fileID: -2046047662, guid: 164138c955bb91a4c9f0cb76250d8e59, type: 3}
    - time: 4.1666665
      value: {fileID: 1891165997, guid: 164138c955bb91a4c9f0cb76250d8e59, type: 3}
    - time: 4.25
      value: {fileID: -77861396, guid: 164138c955bb91a4c9f0cb76250d8e59, type: 3}
    - time: 4.3333335
      value: {fileID: 1803856538, guid: 164138c955bb91a4c9f0cb76250d8e59, type: 3}
    - time: 4.4166665
      value: {fileID: -508751231, guid: 164138c955bb91a4c9f0cb76250d8e59, type: 3}
    - time: 4.5
      value: {fileID: -323641371, guid: 164138c955bb91a4c9f0cb76250d8e59, type: 3}
    - time: 4.5833335
      value: {fileID: -627723759, guid: 164138c955bb91a4c9f0cb76250d8e59, type: 3}
    - time: 4.6666665
      value: {fileID: 198989186, guid: 164138c955bb91a4c9f0cb76250d8e59, type: 3}
    - time: 4.75
      value: {fileID: 1145339411, guid: 164138c955bb91a4c9f0cb76250d8e59, type: 3}
    - time: 4.8333335
      value: {fileID: -1595723815, guid: 164138c955bb91a4c9f0cb76250d8e59, type: 3}
    - time: 4.9166665
      value: {fileID: -555842670, guid: 164138c955bb91a4c9f0cb76250d8e59, type: 3}
    - time: 5
      value: {fileID: -710242712, guid: 164138c955bb91a4c9f0cb76250d8e59, type: 3}
    - time: 5.0833335
      value: {fileID: 495851716, guid: 164138c955bb91a4c9f0cb76250d8e59, type: 3}
    - time: 5.1666665
      value: {fileID: -1777173668, guid: 164138c955bb91a4c9f0cb76250d8e59, type: 3}
    attribute: m_Sprite
    path: 
    classID: 212
    script: {fileID: 0}
  m_SampleRate: 12
  m_WrapMode: 0
  m_Bounds:
    m_Center: {x: 0, y: 0, z: 0}
    m_Extent: {x: 0, y: 0, z: 0}
  m_ClipBindingConstant:
    genericBindings:
    - serializedVersion: 2
      path: 0
      attribute: 0
      script: {fileID: 0}
      typeID: 212
      customType: 23
      isPPtrCurve: 1
    pptrCurveMapping:
    - {fileID: -883973793, guid: 164138c955bb91a4c9f0cb76250d8e59, type: 3}
    - {fileID: -1474281972, guid: 164138c955bb91a4c9f0cb76250d8e59, type: 3}
    - {fileID: 4736066, guid: 164138c955bb91a4c9f0cb76250d8e59, type: 3}
    - {fileID: 2039577564, guid: 164138c955bb91a4c9f0cb76250d8e59, type: 3}
    - {fileID: -744157307, guid: 164138c955bb91a4c9f0cb76250d8e59, type: 3}
    - {fileID: -1662388532, guid: 164138c955bb91a4c9f0cb76250d8e59, type: 3}
    - {fileID: -1407201811, guid: 164138c955bb91a4c9f0cb76250d8e59, type: 3}
    - {fileID: -1756882029, guid: 164138c955bb91a4c9f0cb76250d8e59, type: 3}
    - {fileID: 1930537508, guid: 164138c955bb91a4c9f0cb76250d8e59, type: 3}
    - {fileID: 378693143, guid: 164138c955bb91a4c9f0cb76250d8e59, type: 3}
    - {fileID: 537091475, guid: 164138c955bb91a4c9f0cb76250d8e59, type: 3}
    - {fileID: -1752334006, guid: 164138c955bb91a4c9f0cb76250d8e59, type: 3}
    - {fileID: 1535209173, guid: 164138c955bb91a4c9f0cb76250d8e59, type: 3}
    - {fileID: 397878556, guid: 164138c955bb91a4c9f0cb76250d8e59, type: 3}
    - {fileID: 391511455, guid: 164138c955bb91a4c9f0cb76250d8e59, type: 3}
    - {fileID: -606463573, guid: 164138c955bb91a4c9f0cb76250d8e59, type: 3}
    - {fileID: -163637760, guid: 164138c955bb91a4c9f0cb76250d8e59, type: 3}
    - {fileID: -1482591667, guid: 164138c955bb91a4c9f0cb76250d8e59, type: 3}
    - {fileID: -488039219, guid: 164138c955bb91a4c9f0cb76250d8e59, type: 3}
    - {fileID: 1858646163, guid: 164138c955bb91a4c9f0cb76250d8e59, type: 3}
    - {fileID: -330681856, guid: 164138c955bb91a4c9f0cb76250d8e59, type: 3}
    - {fileID: -429636764, guid: 164138c955bb91a4c9f0cb76250d8e59, type: 3}
    - {fileID: -1175028685, guid: 164138c955bb91a4c9f0cb76250d8e59, type: 3}
    - {fileID: 818200444, guid: 164138c955bb91a4c9f0cb76250d8e59, type: 3}
    - {fileID: -611530374, guid: 164138c955bb91a4c9f0cb76250d8e59, type: 3}
    - {fileID: -2018499130, guid: 164138c955bb91a4c9f0cb76250d8e59, type: 3}
    - {fileID: -1185241912, guid: 164138c955bb91a4c9f0cb76250d8e59, type: 3}
    - {fileID: -812226781, guid: 164138c955bb91a4c9f0cb76250d8e59, type: 3}
    - {fileID: 938327194, guid: 164138c955bb91a4c9f0cb76250d8e59, type: 3}
    - {fileID: 1515233382, guid: 164138c955bb91a4c9f0cb76250d8e59, type: 3}
    - {fileID: 1327180579, guid: 164138c955bb91a4c9f0cb76250d8e59, type: 3}
    - {fileID: -1910716627, guid: 164138c955bb91a4c9f0cb76250d8e59, type: 3}
    - {fileID: -1076997869, guid: 164138c955bb91a4c9f0cb76250d8e59, type: 3}
    - {fileID: -299269227, guid: 164138c955bb91a4c9f0cb76250d8e59, type: 3}
    - {fileID: -798395404, guid: 164138c955bb91a4c9f0cb76250d8e59, type: 3}
    - {fileID: -2118258598, guid: 164138c955bb91a4c9f0cb76250d8e59, type: 3}
    - {fileID: -1716675581, guid: 164138c955bb91a4c9f0cb76250d8e59, type: 3}
    - {fileID: 697581439, guid: 164138c955bb91a4c9f0cb76250d8e59, type: 3}
    - {fileID: 1329069757, guid: 164138c955bb91a4c9f0cb76250d8e59, type: 3}
    - {fileID: 1893155456, guid: 164138c955bb91a4c9f0cb76250d8e59, type: 3}
    - {fileID: -1437559635, guid: 164138c955bb91a4c9f0cb76250d8e59, type: 3}
    - {fileID: -1132173513, guid: 164138c955bb91a4c9f0cb76250d8e59, type: 3}
    - {fileID: 1284453014, guid: 164138c955bb91a4c9f0cb76250d8e59, type: 3}
    - {fileID: 1497253081, guid: 164138c955bb91a4c9f0cb76250d8e59, type: 3}
    - {fileID: -375751236, guid: 164138c955bb91a4c9f0cb76250d8e59, type: 3}
    - {fileID: -370517937, guid: 164138c955bb91a4c9f0cb76250d8e59, type: 3}
    - {fileID: 592305455, guid: 164138c955bb91a4c9f0cb76250d8e59, type: 3}
    - {fileID: 475585133, guid: 164138c955bb91a4c9f0cb76250d8e59, type: 3}
    - {fileID: -637130948, guid: 164138c955bb91a4c9f0cb76250d8e59, type: 3}
    - {fileID: -2046047662, guid: 164138c955bb91a4c9f0cb76250d8e59, type: 3}
    - {fileID: 1891165997, guid: 164138c955bb91a4c9f0cb76250d8e59, type: 3}
    - {fileID: -77861396, guid: 164138c955bb91a4c9f0cb76250d8e59, type: 3}
    - {fileID: 1803856538, guid: 164138c955bb91a4c9f0cb76250d8e59, type: 3}
    - {fileID: -508751231, guid: 164138c955bb91a4c9f0cb76250d8e59, type: 3}
    - {fileID: -323641371, guid: 164138c955bb91a4c9f0cb76250d8e59, type: 3}
    - {fileID: -627723759, guid: 164138c955bb91a4c9f0cb76250d8e59, type: 3}
    - {fileID: 198989186, guid: 164138c955bb91a4c9f0cb76250d8e59, type: 3}
    - {fileID: 1145339411, guid: 164138c955bb91a4c9f0cb76250d8e59, type: 3}
    - {fileID: -1595723815, guid: 164138c955bb91a4c9f0cb76250d8e59, type: 3}
    - {fileID: -555842670, guid: 164138c955bb91a4c9f0cb76250d8e59, type: 3}
    - {fileID: -710242712, guid: 164138c955bb91a4c9f0cb76250d8e59, type: 3}
    - {fileID: 495851716, guid: 164138c955bb91a4c9f0cb76250d8e59, type: 3}
    - {fileID: -1777173668, guid: 164138c955bb91a4c9f0cb76250d8e59, type: 3}
  m_AnimationClipSettings:
    serializedVersion: 2
    m_AdditiveReferencePoseClip: {fileID: 0}
    m_AdditiveReferencePoseTime: 0
    m_StartTime: 0
    m_StopTime: 5.25
    m_OrientationOffsetY: 0
    m_Level: 0
    m_CycleOffset: 0
    m_HasAdditiveReferencePose: 0
    m_LoopTime: 1
    m_LoopBlend: 0
    m_LoopBlendOrientation: 0
    m_LoopBlendPositionY: 0
    m_LoopBlendPositionXZ: 0
    m_KeepOriginalOrientation: 0
    m_KeepOriginalPositionY: 1
    m_KeepOriginalPositionXZ: 0
    m_HeightFromFeet: 0
    m_Mirror: 0
  m_EditorCurves: []
  m_EulerEditorCurves: []
  m_HasGenericRootTransform: 0
  m_HasMotionFloatCurves: 0
  m_Events: []
